{
  "virtual-machine-interface": {
    "routing_instance_refs": [
      {
        "to": [
          "default-domain",
          "openstack",
          "saj_net2",
          "saj_net2"
        ],
        "href": "http://127.0.0.1:9100/routing-instance/89386c93-a15a-4347-91bb-864c25fb09a7",
        "attr": {
          "dst_mac": null,
          "protocol": null,
          "direction": "both",
          "mpls_label": null,
          "vlan_tag": null,
          "src_mac": null,
          "service_chain_address": null
        },
        "uuid": "89386c93-a15a-4347-91bb-864c25fb09a7"
      }
    ],
    "virtual_machine_interface_mac_addresses": {
      "mac_address": [
        "02:2a:1d:f4:af:ab"
      ]
    },
    "parent_href": "http://127.0.0.1:9100/project/be9b84a2-220f-4017-a0ee-0e8a23322fd3",
    "parent_type": "project",
    "href": "http://127.0.0.1:9100/virtual-machine-interface/2a1df4af-ab81-4978-bd8e-7e2d7b2c9f9d",
    "virtual_machine_interface_device_owner": "network:router_interface",
    "display_name": "2a1df4af-ab81-4978-bd8e-7e2d7b2c9f9d",
    "name": "2a1df4af-ab81-4978-bd8e-7e2d7b2c9f9d",
    "fq_name": [
      "default-domain",
      "openstack",
      "2a1df4af-ab81-4978-bd8e-7e2d7b2c9f9d"
    ],
    "uuid": "2a1df4af-ab81-4978-bd8e-7e2d7b2c9f9d",
    "security_group_refs": [
      {
        "to": [
          "default-domain",
          "openstack",
          "default"
        ],
        "href": "http://127.0.0.1:9100/security-group/df92ffb5-9072-4722-9168-9897f3695db2",
        "attr": null,
        "uuid": "df92ffb5-9072-4722-9168-9897f3695db2"
      }
    ],
    "parent_uuid": "be9b84a2-220f-4017-a0ee-0e8a23322fd3",
    "virtual_network_refs": [
      {
        "to": [
          "default-domain",
          "openstack",
          "saj_net2"
        ],
        "href": "http://127.0.0.1:9100/virtual-network/8798dc9c-a00e-45c5-abc8-8b2fd4536227",
        "attr": null,
        "uuid": "8798dc9c-a00e-45c5-abc8-8b2fd4536227"
      }
    ],
    "id_perms": {
      "enable": true,
      "uuid": {
        "uuid_mslong": 3034850759251413500,
        "uuid_lslong": 13658993453666443000
      },
      "creator": null,
      "created": "2016-01-15T08:19:43.559370",
      "user_visible": true,
      "last_modified": "2016-01-15T08:22:26.866966",
      "permissions": {
        "owner": "cloud-admin",
        "owner_access": 7,
        "other_access": 7,
        "group": "admin",
        "group_access": 7
      },
      "description": null
    },
    "logical_router_back_refs": [
      {
        "to": [
          "default-domain",
          "openstack",
          "saj_router1"
        ],
        "href": "http://127.0.0.1:9100/logical-router/89c21bf7-5a02-4abc-9a4e-4ae0b35ec4ca",
        "attr": null,
        "uuid": "89c21bf7-5a02-4abc-9a4e-4ae0b35ec4ca"
      }
    ],
    "instance_ip_back_refs": [
      {
        "to": [
          "57cbee03-371f-4370-a909-2bda9da1c8b6"
        ],
        "href": "http://127.0.0.1:9100/instance-ip/57cbee03-371f-4370-a909-2bda9da1c8b6",
        "attr": null,
        "uuid": "57cbee03-371f-4370-a909-2bda9da1c8b6"
      }
    ]
  }
}
